<?xml version="1.0" encoding="UTF-8"?>
<svg width="588px" height="30px" viewBox="0 0 588 30" version="1.1" xmlns="http://www.w3.org/2000/svg" xmlns:xlink="http://www.w3.org/1999/xlink">
    <!-- Generator: Sketch 62 (91390) - https://sketch.com -->
    <title>Artboard</title>
    <desc>Created with Sketch.</desc>
    <g id="Artboard" stroke="none" stroke-width="1" fill="none" fill-rule="evenodd">
        <rect fill="#FFFFFF" x="0" y="0" width="588" height="30"></rect>
        <path d="M13.725,23 L13.725,18.6 L7.4,18.6 L7.4,6.325 L2.35,6.325 L2.35,23 L13.725,23 Z M28.4,23 L28.4,18.6 L20.8,18.6 L20.8,16.775 L28.225,16.775 L28.225,12.375 L20.8,12.375 L20.8,10.725 L28.4,10.725 L28.4,6.325 L15.75,6.325 L15.75,23 L28.4,23 Z M34.575,23 L35.175,21.05 L41.175,21.05 L41.775,23 L47.5,23 L41.35,6.325 L35,6.325 L28.85,23 L34.575,23 Z M39.825,16.65 L36.525,16.65 L38.175,11.275 L39.825,16.65 Z M55.875,23 C61.1,23 65,19.975 65,14.65 C65,9.325 61.1,6.325 55.85,6.325 L48.4,6.325 L48.4,23 L55.875,23 Z M55.85,18.6 L53.45,18.6 L53.45,10.725 L55.875,10.725 C58.575,10.725 59.875,12.4 59.875,14.65 C59.875,16.75 58.375,18.6 55.85,18.6 Z M79.45,23 L79.45,18.6 L71.85,18.6 L71.85,16.775 L79.275,16.775 L79.275,12.375 L71.85,12.375 L71.85,10.725 L79.45,10.725 L79.45,6.325 L66.8,6.325 L66.8,23 L79.45,23 Z M86.75,23 L86.75,17.75 L88.575,17.75 L90.875,23 L96.625,23 L93.6,17.1 C94.925,16.45 96.6,14.925 96.6,12.05 C96.6,8.925 94.5,6.325 90.6,6.325 L81.7,6.325 L81.7,23 L86.75,23 Z M89.825,13.35 L86.75,13.35 L86.75,10.725 L89.825,10.725 C90.675,10.725 91.475,11.125 91.475,12.025 C91.475,12.95 90.675,13.35 89.825,13.35 Z M105.125,23.3 C109.6,23.3 112.325,21.175 112.325,17.5 C112.325,11.3 103.05,12.65 103.05,11.075 C103.05,10.65 103.325,10.325 104.325,10.325 C105.9,10.325 107.775,10.875 109.225,11.975 L111.925,8.4 C110.025,6.85 107.575,6.075 104.85,6.075 C100.275,6.075 97.925,8.775 97.925,11.6 C97.925,18.175 107.225,16.55 107.225,18.15 C107.225,18.8 106.325,19.05 105.375,19.05 C103.125,19.05 101.25,18.1 100,16.9 L97.375,20.65 C99.15,22.25 101.575,23.3 105.125,23.3 Z M119.025,23 L119.025,16.625 L125,16.625 L125,23 L130.05,23 L130.05,6.325 L125,6.325 L125,12.225 L119.025,12.225 L119.025,6.325 L113.975,6.325 L113.975,23 L119.025,23 Z M137.8,23 L137.8,6.325 L132.75,6.325 L132.75,23 L137.8,23 Z M145.55,23 L145.55,17.75 L149.4,17.75 C153.3,17.75 155.4,15.15 155.4,12.05 C155.4,8.925 153.3,6.325 149.4,6.325 L140.5,6.325 L140.5,23 L145.55,23 Z M148.75,13.35 L145.55,13.35 L145.55,10.725 L148.75,10.725 C149.6,10.725 150.275,11.15 150.275,12.05 C150.275,12.925 149.6,13.35 148.75,13.35 Z M168.475,23 L168.475,6.325 L163.425,6.325 L163.425,23 L168.475,23 Z M176.225,23 L176.225,14.55 L182.375,23 L187.225,23 L187.225,6.325 L182.175,6.325 L182.175,14.225 L176.375,6.325 L171.175,6.325 L171.175,23 L176.225,23 Z M204.925,23 L204.925,10.725 L209.375,10.725 L209.375,6.325 L195.4,6.325 L195.4,10.725 L199.875,10.725 L199.875,23 L204.925,23 Z M216.225,23 L216.225,16.625 L222.2,16.625 L222.2,23 L227.25,23 L227.25,6.325 L222.2,6.325 L222.2,12.225 L216.225,12.225 L216.225,6.325 L211.175,6.325 L211.175,23 L216.225,23 Z M242.6,23 L242.6,18.6 L235,18.6 L235,16.775 L242.425,16.775 L242.425,12.375 L235,12.375 L235,10.725 L242.6,10.725 L242.6,6.325 L229.95,6.325 L229.95,23 L242.6,23 Z M255.15,23 L255.75,21.05 L261.75,21.05 L262.35,23 L268.075,23 L261.925,6.325 L255.575,6.325 L249.425,23 L255.15,23 Z M260.4,16.65 L257.1,16.65 L258.75,11.275 L260.4,16.65 Z M276.5,23.3 C279.775,23.3 282.275,21.975 284.125,19.925 L284.125,13.1 L276,13.1 L276,17.5 L279.1,17.5 L279.1,18.1 C278.575,18.5 277.45,18.85 276.5,18.85 C274.075,18.85 272.45,17 272.45,14.675 C272.45,12.35 274.075,10.5 276.5,10.5 C278,10.5 279.1,11.55 279.575,12.575 L283.825,10.4 C282.775,8.25 280.475,6.05 276.5,6.05 C271.45,6.05 267.325,9.325 267.325,14.675 C267.325,20 271.45,23.3 276.5,23.3 Z M299.025,23 L299.025,18.6 L291.425,18.6 L291.425,16.775 L298.85,16.775 L298.85,12.375 L291.425,12.375 L291.425,10.725 L299.025,10.725 L299.025,6.325 L286.375,6.325 L286.375,23 L299.025,23 Z M315.875,23.3 C321.025,23.3 325,19.8 325,14.675 C325,9.55 321.025,6.05 315.875,6.05 C310.725,6.05 306.75,9.55 306.75,14.675 C306.75,19.8 310.725,23.3 315.875,23.3 Z M315.875,18.85 C313.45,18.85 311.875,17 311.875,14.675 C311.875,12.35 313.45,10.5 315.875,10.5 C318.3,10.5 319.875,12.35 319.875,14.675 C319.875,17 318.3,18.85 315.875,18.85 Z M331.85,23 L331.85,16.775 L339.275,16.775 L339.275,12.375 L331.85,12.375 L331.85,10.725 L339.45,10.725 L339.45,6.325 L326.8,6.325 L326.8,23 L331.85,23 Z M353.025,23 L353.025,17.75 L356.875,17.75 C360.775,17.75 362.875,15.15 362.875,12.05 C362.875,8.925 360.775,6.325 356.875,6.325 L347.975,6.325 L347.975,23 L353.025,23 Z M356.225,13.35 L353.025,13.35 L353.025,10.725 L356.225,10.725 C357.075,10.725 357.75,11.15 357.75,12.05 C357.75,12.925 357.075,13.35 356.225,13.35 Z M377.175,23 L377.175,18.6 L369.575,18.6 L369.575,16.775 L377,16.775 L377,12.375 L369.575,12.375 L369.575,10.725 L377.175,10.725 L377.175,6.325 L364.525,6.325 L364.525,23 L377.175,23 Z M384.475,23 L384.475,17.75 L386.3,17.75 L388.6,23 L394.35,23 L391.325,17.1 C392.65,16.45 394.325,14.925 394.325,12.05 C394.325,8.925 392.225,6.325 388.325,6.325 L379.425,6.325 L379.425,23 L384.475,23 Z M387.55,13.35 L384.475,13.35 L384.475,10.725 L387.55,10.725 C388.4,10.725 389.2,11.125 389.2,12.025 C389.2,12.95 388.4,13.35 387.55,13.35 Z M402.85,23.3 C407.325,23.3 410.05,21.175 410.05,17.5 C410.05,11.3 400.775,12.65 400.775,11.075 C400.775,10.65 401.05,10.325 402.05,10.325 C403.625,10.325 405.5,10.875 406.95,11.975 L409.65,8.4 C407.75,6.85 405.3,6.075 402.575,6.075 C398,6.075 395.65,8.775 395.65,11.6 C395.65,18.175 404.95,16.55 404.95,18.15 C404.95,18.8 404.05,19.05 403.1,19.05 C400.85,19.05 398.975,18.1 397.725,16.9 L395.1,20.65 C396.875,22.25 399.3,23.3 402.85,23.3 Z M419.925,23.3 C425.075,23.3 429.05,19.8 429.05,14.675 C429.05,9.55 425.075,6.05 419.925,6.05 C414.775,6.05 410.8,9.55 410.8,14.675 C410.8,19.8 414.775,23.3 419.925,23.3 Z M419.925,18.85 C417.5,18.85 415.925,17 415.925,14.675 C415.925,12.35 417.5,10.5 419.925,10.5 C422.35,10.5 423.925,12.35 423.925,14.675 C423.925,17 422.35,18.85 419.925,18.85 Z M435.9,23 L435.9,14.55 L442.05,23 L446.9,23 L446.9,6.325 L441.85,6.325 L441.85,14.225 L436.05,6.325 L430.85,6.325 L430.85,23 L435.9,23 Z M453.525,23 L454.125,21.05 L460.125,21.05 L460.725,23 L466.45,23 L460.3,6.325 L453.95,6.325 L447.8,23 L453.525,23 Z M458.775,16.65 L455.475,16.65 L457.125,11.275 L458.775,16.65 Z M478.725,23 L478.725,18.6 L472.4,18.6 L472.4,6.325 L467.35,6.325 L467.35,23 L478.725,23 Z M485.8,23 L485.8,6.325 L480.75,6.325 L480.75,23 L485.8,23 Z M501.25,23 L501.25,18.6 L494.7,18.6 L501.075,10.3 L501.075,6.325 L488.05,6.325 L488.05,10.725 L494.4,10.725 L488.05,19 L488.05,23 L501.25,23 Z M507.425,23 L508.025,21.05 L514.025,21.05 L514.625,23 L520.35,23 L514.2,6.325 L507.85,6.325 L501.7,23 L507.425,23 Z M512.675,16.65 L509.375,16.65 L511.025,11.275 L512.675,16.65 Z M528.375,23 L528.375,10.725 L532.825,10.725 L532.825,6.325 L518.85,6.325 L518.85,10.725 L523.325,10.725 L523.325,23 L528.375,23 Z M539.675,23 L539.675,6.325 L534.625,6.325 L534.625,23 L539.675,23 Z M550.6,23.3 C555.75,23.3 559.725,19.8 559.725,14.675 C559.725,9.55 555.75,6.05 550.6,6.05 C545.45,6.05 541.475,9.55 541.475,14.675 C541.475,19.8 545.45,23.3 550.6,23.3 Z M550.6,18.85 C548.175,18.85 546.6,17 546.6,14.675 C546.6,12.35 548.175,10.5 550.6,10.5 C553.025,10.5 554.6,12.35 554.6,14.675 C554.6,17 553.025,18.85 550.6,18.85 Z M566.575,23 L566.575,14.55 L572.725,23 L577.575,23 L577.575,6.325 L572.525,6.325 L572.525,14.225 L566.725,6.325 L561.525,6.325 L561.525,23 L566.575,23 Z" id="LEADERSHIPINTHEAGEOFPERSONALIZATION" fill="#000000" fill-rule="nonzero"></path>
        <path d="M583.801,18.699 C585.807,18.699 587.405,17.084 587.405,15.095 C587.405,13.089 585.807,11.491 583.801,11.491 C581.812,11.491 580.197,13.089 580.197,15.095 C580.197,17.084 581.812,18.699 583.801,18.699 Z M583.801,18.223 C582.067,18.223 580.673,16.812 580.673,15.095 C580.673,13.361 582.067,11.984 583.801,11.984 C585.518,11.984 586.912,13.361 586.912,15.095 C586.912,16.812 585.518,18.223 583.801,18.223 Z M582.968,17.169 L582.968,15.537 L583.716,15.537 L584.787,17.169 L585.467,17.169 L584.362,15.52 C584.6,15.52 585.416,15.214 585.416,14.296 C585.416,13.531 584.804,13.038 584.107,13.038 L582.424,13.038 L582.424,17.169 L582.968,17.169 Z M584.107,15.044 L582.968,15.044 L582.968,13.514 L584.107,13.514 C584.464,13.514 584.855,13.837 584.855,14.296 C584.855,14.721 584.464,15.044 584.107,15.044 Z" id="®" fill="#000000" fill-rule="nonzero"></path>
    </g>
</svg>